{
    "app-id": "de.schmidhuberj.Flare",
    "runtime": "org.gnome.Platform",
    "runtime-version": "master",
    "sdk": "org.gnome.Sdk",
    "sdk-extensions": [
        "org.freedesktop.Sdk.Extension.rust-stable"
    ],
    "command": "flare",
    "finish-args": [
        "--share=ipc",
        "--socket=fallback-x11",
        "--socket=wayland",
        "--socket=pulseaudio",
        "--device=dri",
        "--share=network",
        "--talk-name=org.freedesktop.secrets",
        "--talk-name=org.freedesktop.portal.FileChooser",
        "--system-talk-name=org.freedesktop.login1"
    ],
    "build-options": {
        "append-path": "/usr/lib/sdk/rust-stable/bin",
        "env": {
            "CARGO_HOME": "/run/build/flare/cargo",
            "RUST_BACKTRACE": "1"
        },
        "build-args": [ "--share=network" ]
    },
    "modules": [
        {
            "name": "flare",
            "buildsystem": "meson",
            "sources" : [
                {
                    "type" : "git",
                    "url" : "../"
                }
            ]
        }
    ]
}
